Time Series 04: Subset and Manipulate Time Series Data with dplyr
…
the output is a new data frame.

Group by a Variable (or Two)

Our goal for this tutorial is to view drivers of annual phenology patterns. Specifically, we want to explore daily average temperature throughout the year. This means we need to calculate average temperature, for each day, across three years. To do this we can use the group_by() function as we did earlier. However this time, we can group by two variables: year and Julian Day (jd) as follows:

group_by(year, jd)

Lets begin by counting or tallying the total measurements per Julian day (or year day) using the group_by() function and pipes.

harMet15.09.11 %>%         # use the harMet15.09.11 data_frame
  group_by(year, jd) %>%   # group data by Year & Julian day
  tally()                  # tally (count) observations per jd / year

## # A tibble: 1,096 x 3
## # Groups:   year [3]
##     year    jd     n
##    <dbl> <int> <int>
##  1  2009     1    96
##  2  2009     2    96
##  3  2009     3    96
##  4  2009     4    96
##  5  2009     5    96
##  6  2009     6    96
##  7  2009     7    96
##  8  2009     8    96
##  9  2009     9    96
## 10  2009    10    96
## #  with 1,086 more rows
…
24*4  # 24 hours/day * 4 15-min data points/hour

## [1] 96

 Data Tip: If Julian days werent already in our data, we could use the yday() function from the lubridate package to create a new column containing Julian day values. More information in this  NEON Data Skills tutorial.

Summarize by Group

We can use summarize() function to calculate a summary output value for each group - in this case Julian day per year. Lets calculate the mean air temperature for each Julian day per year. Note that we are still using na.rm=TRUE to tell R to skip NA values.

harMet15.09.11 %>%         # use the harMet15.09.11 data_frame
  group_by(year, jd) %>%   # group data by Year & Julian day
  dplyr::summarize(mean_airt = mean(airt, na.rm = TRUE))  # mean airtemp per jd / year

## # A tibble: 1,096 x 3
## # Groups:   year [3]
##     year    jd mean_airt
##    <dbl> <int>     <dbl>
##  1  2009     1    -15.1 
##  2  2009     2     -9.14
##  3  2009     3     -5.54
##  4  2009     4     -6.35
##  5  2009     5     -2.41
##  6  2009     6     -4.92
##  7  2009     7     -2.59
##  8  2009     8     -3.23
##  9  2009     9     -9.92
## 10  2009    10    -11.1 
## #  with 1,086 more rows
…
Mutate - Add data_frame Columns to dplyr Output

We can use the mutate() function of dplyr to add additional columns of information to a data_frame. For instance, we added the year column independently at the very beginning of the tutorial. However, we can add the year using a dplyr pipe that also summarizes our data. To do this, we would use the syntax:

mutate(year2 = year(datetime))

year2 is the name of the column that will be added to the output dplyr data_frame.

harMet15.09.11 %>%
  mutate(year2 = year(datetime)) %>%
  group_by(year2, jd) %>%
  dplyr::summarize(mean_airt = mean(airt, na.rm = TRUE))

## # A tibble: 1,096 x 3
## # Groups:   year2 [3]
##    year2    jd mean_airt
##    <dbl> <int>     <dbl>
##  1  2009     1    -15.1 
##  2  2009     2     -9.14
##  3  2009     3     -5.54
##  4  2009     4     -6.35
##  5  2009     5     -2.41
##  6  2009     6     -4.92
##  7  2009     7     -2.59
##  8  2009     8     -3.23
##  9  2009     9     -9.92
## 10  2009    10    -11.1 
## #  with 1,086 more rows
…
