…
We see that a large number of Darwin Core fields are present in the results that outline the who, what, where, when, and more of each sample. For fun, let's explore the data. Try grouping or summarizing by any fields that interest you.


    # How many samples are included in the results for each collection, species, and sex?

    

    biorepo %>% 
      group_by(collectionCode,scientificName,sex) %>% 
      count()

    ## # A tibble: 83 × 4
    ## # Groups:   collectionCode, scientificName, sex [83]
    ##    collectionCode scientificName            sex         n
    ##    <chr>          <chr>                     <chr>   <int>
    ##  1 MAMC-FE        ""                        Male        1
    ##  2 MAMC-FE        "Clethrionomys gapperi"   Female     15
    ##  3 MAMC-FE        "Clethrionomys gapperi"   Male        7
    ##  4 MAMC-FE        "Clethrionomys gapperi"   Unknown     2
    ##  5 MAMC-FE        "Microtus pennsylvanicus" Female     33
    ##  6 MAMC-FE        "Microtus pennsylvanicus" Male       34
    ##  7 MAMC-FE        "Microtus pinetorum"      Female      8
    ##  8 MAMC-FE        "Microtus pinetorum"      Male        6
    ##  9 MAMC-FE        "Mus musculus"            Female     38
    ## 10 MAMC-FE        "Mus musculus"            Male       46
    ## # ℹ 73 more rows
…
