…
`group_by(year, jd)`

Let's begin by counting or `tally`ing the total measurements per Julian day (or
year day) using the `group_by()` function and pipes. 


    harMet15.09.11 %>%         # use the harMet15.09.11 data_frame
      group_by(year, jd) %>%   # group data by Year & Julian day
      tally()                  # tally (count) observations per jd / year

    ## # A tibble: 1,096 x 3
    ## # Groups:   year [?]
    ##     year    jd     n
    ##    <dbl> <int> <int>
    ##  1  2009     1    96
    ##  2  2009     2    96
    ##  3  2009     3    96
    ##  4  2009     4    96
    ##  5  2009     5    96
    ##  6  2009     6    96
    ##  7  2009     7    96
    ##  8  2009     8    96
    ##  9  2009     9    96
    ## 10  2009    10    96
    ## # ... with 1,086 more rows
…
### Summarize by Group
We can use `summarize()` function to calculate a summary output value for each
"group" - in this case Julian day per year. Let's calculate the mean air
temperature for each Julian day per year. Note that we are still using
`na.rm=TRUE` to tell `R` to skip `NA` values.


    harMet15.09.11 %>%         # use the harMet15.09.11 data_frame
      group_by(year, jd) %>%   # group data by Year & Julian day
      summarize(mean_airt = mean(airt, na.rm = TRUE))  # mean airtemp per jd / year

    ## # A tibble: 1,096 x 3
    ## # Groups:   year [?]
    ##     year    jd  mean_airt
    ##    <dbl> <int>      <dbl>
    ##  1  2009     1 -15.128125
    ##  2  2009     2  -9.143750
    ##  3  2009     3  -5.539583
    ##  4  2009     4  -6.352083
    ##  5  2009     5  -2.414583
    ##  6  2009     6  -4.915625
    ##  7  2009     7  -2.590625
    ##  8  2009     8  -3.227083
    ##  9  2009     9  -9.915625
    ## 10  2009    10 -11.131250
    ## # ... with 1,086 more rows
…
`mutate(year2 = year(datetime))`

year2 is the name of the column that will be added to the output `dplyr`
data_frame.


    harMet15.09.11 %>%
      mutate(year2 = year(datetime)) %>%
      group_by(year2, jd) %>%
      summarize(mean_airt = mean(airt, na.rm = TRUE))

    ## # A tibble: 1,096 x 3
    ## # Groups:   year2 [?]
    ##    year2    jd  mean_airt
    ##    <dbl> <int>      <dbl>
    ##  1  2009     1 -15.128125
    ##  2  2009     2  -9.143750
    ##  3  2009     3  -5.539583
    ##  4  2009     4  -6.352083
    ##  5  2009     5  -2.414583
    ##  6  2009     6  -4.915625
    ##  7  2009     7  -2.590625
    ##  8  2009     8  -3.227083
    ##  9  2009     9  -9.915625
    ## 10  2009    10 -11.131250
    ## # ... with 1,086 more rows
…
