…
    # Note that for this data product
    # neon_sample_id = event_id
    # event_id is a grouping variable for the observation 
    # table in the ecocomDP data model
    
    
    
    # Check for multiple taxon counts per taxon_id by 
    # event_id. 
    my_data_benthic %>% 
      group_by(event_id, taxon_id) %>%
      summarize(n_obs = length(event_id)) %>%
      dplyr::filter(n_obs > 1)

    ## # A tibble: 129 x 3
    ## # Groups:   event_id [26]
    ##    event_id                  taxon_id       n_obs
    ##    <chr>                     <chr>          <int>
    ##  1 ARIK.20170718.EPIPHYTON.2 NEONDREX1010       2
    ##  2 ARIK.20170718.EPIPHYTON.2 NEONDREX1024       2
    ##  3 ARIK.20170718.EPIPHYTON.2 NEONDREX110005     2
    ##  4 ARIK.20170718.EPIPHYTON.2 NEONDREX155017     2
    ##  5 ARIK.20170718.EPIPHYTON.2 NEONDREX16004      2
    ##  6 ARIK.20170718.EPIPHYTON.2 NEONDREX16011      2
    ##  7 ARIK.20170718.EPIPHYTON.2 NEONDREX170133     2
    ##  8 ARIK.20170718.EPIPHYTON.2 NEONDREX170134     2
    ##  9 ARIK.20170718.EPIPHYTON.2 NEONDREX172001     2
    ## 10 ARIK.20170718.EPIPHYTON.2 NEONDREX172006     2
    ## # ... with 119 more rows
…
